{
  "openapi" : "3.0.1",
  "info" : {
    "title" : "Kotiki",
    "version" : "0.0.1"
  },
  "servers" : [ {
    "url" : "http://localhost:10010/api/v1"
  } ],
  "paths" : {
    "/white" : {
      "get" : {
        "description" : "Returns description of three cats",
        "operationId" : "white",
        "parameters" : [ {
          "name" : "name",
          "in" : "query",
          "description" : "The name of the person to whom to say hello",
          "schema" : {
            "type" : "string"
          }
        } ],
        "responses" : {
          "200" : {
            "description" : "Success",
            "content" : {
              "application/json" : {
                "schema" : {
                  "$ref" : "#/components/schemas/WhiteResponse"
                }
              }
            }
          },
          "default" : {
            "description" : "Error",
            "content" : {
              "application/json" : {
                "schema" : {
                  "$ref" : "#/components/schemas/ErrorResponse"
                }
              }
            }
          }
        }
      },
      "x-swagger-router-controller" : "kotiki-controller"
    },
    "/black" : {
      "get" : {
        "description" : "Returns deacription of only one cat",
        "operationId" : "black",
        "parameters" : [ {
          "name" : "name",
          "in" : "query",
          "description" : "The name of the person to whom to say hello",
          "schema" : {
            "type" : "string"
          }
        } ],
        "responses" : {
          "200" : {
            "description" : "Success",
            "content" : {
              "application/json" : {
                "schema" : {
                  "$ref" : "#/components/schemas/BlackResponse"
                }
              }
            }
          },
          "default" : {
            "description" : "Error",
            "content" : {
              "application/json" : {
                "schema" : {
                  "$ref" : "#/components/schemas/ErrorResponse"
                }
              }
            }
          }
        }
      },
      "x-swagger-router-controller" : "kotiki-controller"
    },
    "/hello" : {
      "get" : {
        "description" : "Returns Kis-kis, <name>",
        "operationId" : "hello",
        "parameters" : [ {
          "name" : "name",
          "in" : "query",
          "description" : "The name of the person to whom to say hello",
          "schema" : {
            "type" : "string"
          }
        } ],
        "responses" : {
          "200" : {
            "description" : "Success",
            "content" : {
              "application/json" : {
                "schema" : {
                  "$ref" : "#/components/schemas/HelloResponse"
                }
              }
            }
          },
          "default" : {
            "description" : "Error",
            "content" : {
              "application/json" : {
                "schema" : {
                  "$ref" : "#/components/schemas/ErrorResponse"
                }
              }
            }
          }
        }
      },
      "x-swagger-router-controller" : "kotiki-controller"
    },
    "/swagger" : {
      "x-swagger-pipe" : "swagger_raw"
    }
  },
  "components" : {
    "schemas" : {
      "WhiteResponse" : {
        "type" : "array",
        "items" : {
          "$ref" : "#/components/schemas/WhiteItemResponse"
        }
      },
      "WhiteItemResponse" : {
        "type" : "object",
        "properties" : {
          "name" : {
            "type" : "string"
          },
          "breed" : {
            "type" : "string"
          },
          "img" : {
            "type" : "string"
          }
        }
      },
      "BlackResponse" : {
        "type" : "array",
        "items" : {
          "$ref" : "#/components/schemas/BlackItemResponse"
        }
      },
      "BlackItemResponse" : {
        "type" : "object",
        "properties" : {
          "name" : {
            "type" : "string"
          },
          "breed" : {
            "type" : "string"
          },
          "img" : {
            "type" : "string"
          },
          "age" : {
            "type" : "number"
          },
          "height" : {
            "type" : "number"
          }
        }
      },
      "HelloResponse" : {
        "required" : [ "message" ],
        "type" : "object",
        "properties" : {
          "message" : {
            "type" : "string"
          }
        }
      },
      "ErrorResponse" : {
        "required" : [ "message" ],
        "type" : "object",
        "properties" : {
          "message" : {
            "type" : "string"
          }
        }
      }
    }
  }
}